%YAML 1.1
%TAG !u! tag:unity3d.com,2011:
--- !u!1045 &1
EditorBuildSettings:
  m_ObjectHideFlags: 0
  serializedVersion: 2
  m_Scenes:
  - enabled: 0
    path: 
    guid: 00000000000000000000000000000000
  - enabled: 0
    path: Assets/AGLib/NET/Example/Scene_ApeNET_Client.unity
    guid: 4326449426d73f0479a3e89d4a79d473
  - enabled: 1
    path: Assets/AGLib/NET/Example/Scene_ApeNET_Server.unity
    guid: 9ec6e7ab25246d54fafebc52613e09c9
  m_configObjects: {}
